{
  "preset": "Default",
  "closed": false,
  "remembered": {
    "Default": {
      "0": {
        "warpSpeed": 55
      },
      "1": {
        "starAmount": 500,
        "color": 16777215,
        "randomiseColor": false,
        "stop": false,
        "starWidth": 0.015054368430122351
      },
      "2": {
        "topGradientStandard": 5455354,
        "topGradientWarp": 5467361,
        "bottomGradientStandard": 1188439,
        "bottomGradientWarp": 3823545,
        "topSmokeStandard": 4790944,
        "topSmokeWarp": 6397426,
        "bottomSmokeStandard": 7884947,
        "bottomSmokeWarp": 7634102,
        "centerZoneStandard": 0,
        "centerZoneWarp": 0
      },
      "3": {
        "totCoins": 14,
        "coinScale": 2.3309495088747196
      },
      "4": {
        "standard": 0.75,
        "warp": 2
      },
      "5": {
        "x": 3.7039635215713784,
        "y": 6.734479130129779,
        "z": 2.0203437390389336
      },
      "6": {
        "min": 8.486495966327604,
        "max": 14.99649245878639
      },
      "7": {
        "fov": 60
      },
      "8": {
        "blurStrengthWarp": 0.3904876787868344,
        "blurStrengthIdle": 0
      },
      "9": {
        "innerRadius": 792.086851628468,
        "radius": 1920
      }
    }
  },
  "folders": {
    "Camera": {
      "preset": "Default",
      "closed": false,
      "folders": {}
    },
    "Warp": {
      "preset": "Default",
      "closed": false,
      "folders": {}
    },
    "Background": {
      "preset": "Default",
      "closed": true,
      "folders": {}
    },
    "Coin": {
      "preset": "Default",
      "closed": false,
      "folders": {
        "Movement Speed": {
          "preset": "Default",
          "closed": true,
          "folders": {}
        },
        "Rotation Speed": {
          "preset": "Default",
          "closed": false,
          "folders": {}
        },
        "Spawn Radius": {
          "preset": "Default",
          "closed": false,
          "folders": {}
        }
      }
    },
    "Filters": {
      "preset": "Default",
      "closed": false,
      "folders": {}
    }
  }
}